{
  "project_info": {
    "project_number": "301844555095",
    "firebase_url": "https://jamalek-463be.firebaseio.com",
    "project_id": "jamalek-463be",
    "storage_bucket": "jamalek-463be.appspot.com"
  },
  "client": [
    {
      "client_info": {
        "mobilesdk_app_id": "1:301844555095:android:007e90c8fa3b60301fca12",
        "android_client_info": {
          "package_name": "com.zestbrains.jamalek"
        }
      },
      "oauth_client": [
        {
          "client_id": "301844555095-5pucck0e8tpen19081er6v5em98mo6hs.apps.googleusercontent.com",
          "client_type": 3
        }
      ],
      "api_key": [
        {
          "current_key": "AIzaSyD8ZMJinNAMuuBiueve6x07waTndPj5xlM"
        }
      ],
      "services": {
        "appinvite_service": {
          "other_platform_oauth_client": [
            {
              "client_id": "301844555095-5pucck0e8tpen19081er6v5em98mo6hs.apps.googleusercontent.com",
              "client_type": 3
            }
          ]
        }
      }
    }
  ],
  "configuration_version": "1"
}